<?xml version="1.0" encoding="utf-8"?>
<svg viewBox="388 1330 80 78.667" xmlns="http://www.w3.org/2000/svg">
  <g id="coins_1_" data-name="coins (1)" transform="matrix(1, 0, 0, 1, 388, 1325.733032)">
    <circle id="Ellipse_96" data-name="Ellipse 96" cx="9.333" cy="9.333" r="9.333" transform="translate(54.667 41.6)" fill="#fdb62f"/>
    <rect id="Rectangle_106" data-name="Rectangle 106" width="2.667" height="25.333" transform="translate(38.667 13.6)" fill="#6b962a"/>
    <path id="Tracé_711" data-name="Tracé 711" d="M191.2,13.6h-2.667A9.333,9.333,0,0,1,179.2,4.267h2.667A9.333,9.333,0,0,1,191.2,13.6Z" transform="translate(-151.2)" fill="#88b337"/>
    <rect id="Rectangle_107" data-name="Rectangle 107" width="18.667" height="5.333" transform="translate(28 44.267)" fill="#ffa83d"/>
    <rect id="Rectangle_108" data-name="Rectangle 108" width="18.667" height="5.333" transform="translate(30.667 49.6)" fill="#fdb62f"/>
    <rect id="Rectangle_109" data-name="Rectangle 109" width="18.667" height="5.333" transform="translate(28 54.934)" fill="#ffa83d"/>
    <rect id="Rectangle_110" data-name="Rectangle 110" width="18.667" height="5.333" transform="translate(30.667 60.267)" fill="#fdb62f"/>
    <rect id="Rectangle_111" data-name="Rectangle 111" width="18.667" height="5.333" transform="translate(30.667 65.6)" fill="#ffa83d"/>
    <rect id="Rectangle_112" data-name="Rectangle 112" width="18.667" height="5.333" transform="translate(33.333 70.934)" fill="#fdb62f"/>
    <rect id="Rectangle_113" data-name="Rectangle 113" width="18.667" height="5.333" transform="translate(30.667 76.267)" fill="#ffa83d"/>
    <path id="Tracé_712" data-name="Tracé 712" d="M153.6,89.6h2.667A13.333,13.333,0,0,1,169.6,102.933h-2.667A13.333,13.333,0,0,1,153.6,89.6Z" transform="translate(-129.6 -72)" fill="#88b337"/>
    <g id="Groupe_324" data-name="Groupe 324" transform="translate(40 4.267)">
      <path id="Tracé_713" data-name="Tracé 713" d="M268,4.267h-2.667A9.333,9.333,0,0,0,256,13.6h2.667A9.333,9.333,0,0,0,268,4.267Z" transform="translate(-256 -4.267)" fill="#6b962a"/>
      <path id="Tracé_714" data-name="Tracé 714" d="M258.667,102.933H256A13.333,13.333,0,0,1,269.333,89.6H272A13.333,13.333,0,0,1,258.667,102.933Z" transform="translate(-256 -76.267)" fill="#6b962a"/>
    </g>
    <rect id="Rectangle_114" data-name="Rectangle 114" width="18.667" height="5.333" transform="translate(4 54.934)" fill="#fdb62f"/>
    <rect id="Rectangle_115" data-name="Rectangle 115" width="18.667" height="5.333" transform="translate(4 60.267)" fill="#ffa83d"/>
    <rect id="Rectangle_116" data-name="Rectangle 116" width="18.667" height="5.333" transform="translate(6.667 65.6)" fill="#fdb62f"/>
    <rect id="Rectangle_117" data-name="Rectangle 117" width="18.667" height="5.333" transform="translate(4 70.934)" fill="#ffa83d"/>
    <g id="Groupe_325" data-name="Groupe 325" transform="translate(6.667 60.267)">
      <rect id="Rectangle_118" data-name="Rectangle 118" width="18.667" height="5.333" transform="translate(0 16)" fill="#fdb62f"/>
      <rect id="Rectangle_119" data-name="Rectangle 119" width="18.667" height="5.333" transform="translate(48)" fill="#fdb62f"/>
    </g>
    <rect id="Rectangle_120" data-name="Rectangle 120" width="18.667" height="5.333" transform="translate(57.333 65.6)" fill="#ffa83d"/>
    <rect id="Rectangle_121" data-name="Rectangle 121" width="18.667" height="5.333" transform="translate(57.333 70.934)" fill="#fdb62f"/>
    <g id="Groupe_326" data-name="Groupe 326" transform="translate(57.333 45.6)">
      <rect id="Rectangle_122" data-name="Rectangle 122" width="18.667" height="5.333" transform="translate(0 30.667)" fill="#ffa83d"/>
      <circle id="Ellipse_97" data-name="Ellipse 97" cx="5.333" cy="5.333" r="5.333" transform="translate(1.333)" fill="#ffa83d"/>
    </g>
    <g id="Groupe_327" data-name="Groupe 327" transform="translate(58.667 45.6)">
      <path id="Tracé_715" data-name="Tracé 715" d="M409.6,308.266V305.6a2.666,2.666,0,0,0,2.667-2.667h2.667A5.334,5.334,0,0,1,409.6,308.266Z" transform="translate(-404.267 -297.6)" fill="#fd7b2f"/>
      <path id="Tracé_716" data-name="Tracé 716" d="M378.133,274.133h-2.667A5.334,5.334,0,0,1,380.8,268.8v2.667A2.666,2.666,0,0,0,378.133,274.133Z" transform="translate(-375.466 -268.8)" fill="#fd7b2f"/>
    </g>
    <g id="Groupe_328" data-name="Groupe 328" transform="translate(8 6.934)">
      <path id="Tracé_717" data-name="Tracé 717" d="M397.867,32h0a6.479,6.479,0,0,0-5.333-5.333h0a6.479,6.479,0,0,0,5.333-5.333h0a6.479,6.479,0,0,0,5.333,5.333h0A6.479,6.479,0,0,0,397.867,32Z" transform="translate(-339.201 -21.334)" fill="#fdb62f"/>
      <path id="Tracé_718" data-name="Tracé 718" d="M56.533,219.734h0A6.479,6.479,0,0,0,51.2,214.4h0a6.479,6.479,0,0,0,5.333-5.333h0a6.479,6.479,0,0,0,5.333,5.333h0A6.48,6.48,0,0,0,56.533,219.734Z" transform="translate(-51.2 -179.734)" fill="#fdb62f"/>
      <rect id="Rectangle_123" data-name="Rectangle 123" width="18.667" height="5.333" transform="translate(22.667 32)" fill="#fdb62f"/>
      <path id="Tracé_719" data-name="Tracé 719" d="M454.4,178.933h-4v-4h-2.667v4h-4V181.6h4v4H450.4v-4h4Z" transform="translate(-382.4 -150.933)" fill="#fdb62f"/>
    </g>
    <g id="Groupe_329" data-name="Groupe 329" transform="translate(0 25.6)">
      <rect id="Rectangle_124" data-name="Rectangle 124" width="80" height="2.667" transform="translate(0 54.667)" fill="#dbdbdb"/>
      <path id="Tracé_720" data-name="Tracé 720" d="M127.467,150.133a8,8,0,0,1-8-8V140.8h2.667v1.333a5.334,5.334,0,0,0,5.333,5.333Z" transform="translate(-100.8 -140.8)" fill="#dbdbdb"/>
    </g>
  </g>
</svg>