<?xml version="1.0" encoding="utf-8"?>
<svg viewBox="13.595 7.888 24 22.825" xmlns="http://www.w3.org/2000/svg">
  <path d="M 25.595 7.888 L 28.428 16.606 L 37.595 16.606 L 30.178 21.995 L 33.011 30.713 L 25.595 25.325 L 18.178 30.713 L 21.011 21.995 L 13.595 16.606 L 22.762 16.606 Z" style="fill: rgb(255, 0, 102);"/>
</svg>