<?xml version="1.0" encoding="utf-8"?>
<svg viewBox="899.031 1329.989 76.339 79.011" xmlns="http://www.w3.org/2000/svg">
  <g id="rich" transform="matrix(1, 0, 0, 1, 898.034973, 1330.000977)">
    <path id="XMLID_121_" d="M34.221,19.316A6.794,6.794,0,0,1,29.4,17.325,1.362,1.362,0,0,1,31.331,15.4a4.093,4.093,0,0,0,5.779,0,1.362,1.362,0,0,1,1.926,1.926,6.788,6.788,0,0,1-4.815,1.991" transform="translate(10.153 5.431)" fill="#4c4031"/>
    <path id="XMLID_120_" d="M52.817,54.059h0V48.61c0-1.154,3.565-3.183,8.488-3.93a25.841,25.841,0,0,0-7.7-9.643L43.73,28.325a14.138,14.138,0,0,0-1.643-1.083,34.7,34.7,0,0,1-1.535-7.1l-.706-6.556a7.694,7.694,0,0,1,.007-1.743c.087-.734.184-1.787.225-1.907.086-.248.2-.528.317-.8A18.37,18.37,0,0,1,42.332,6a7.941,7.941,0,0,1,.776-.8A2.61,2.61,0,0,0,42.316.7a13.216,13.216,0,0,0-3.423-.68c-.113-.007-.227,0-.341,0-.271-.005-.543-.016-.816,0a8.064,8.064,0,0,0-4.656,1.765,2.676,2.676,0,0,1-1.656.592,2.7,2.7,0,0,1-1.682-.6A8.279,8.279,0,0,0,23.934.015,13.206,13.206,0,0,0,20.512.7a2.61,2.61,0,0,0-.793,4.51,7.171,7.171,0,0,1,.522.508q.084.084.163.168c.233.255.47.541.71.846a12.489,12.489,0,0,1,1.663,3.21c.091.264.184,1.723.327,2.521a8.658,8.658,0,0,1,.151,1.534v4.751a34.693,34.693,0,0,1-1,8.224A10.434,10.434,0,0,0,20.4,28.1l-9.6,6.994A25.329,25.329,0,0,0,3.614,66.323c2.265,4.469,5.4,8.3,9.092,8.554.341.025.682.037,1.03.037H40.56a8.949,8.949,0,0,1-.835-1.937c.142-.005.283,0,.424-.015,8.885-.6,14.624-6.125,12.67-13.982V54.059Z" transform="translate(0 0)" fill="#c7b6a1"/>
    <path id="XMLID_119_" d="M51.293,42.281c-6.771,0-12.259-1.16-12.259-2.593v5.45c0,1.432,5.49,2.592,12.259,2.592s12.254-1.16,12.259-2.592v-5.45c0,1.433-5.486,2.593-12.259,2.593" transform="translate(13.783 14.37)" fill="#d19d18"/>
    <path id="XMLID_118_" d="M39.034,39.687Z" transform="translate(13.783 14.37)" fill="#d19d18"/>
    <path id="XMLID_117_" d="M57.034,39.687Z" transform="translate(20.301 14.37)" fill="#d19d18"/>
    <path id="XMLID_116_" d="M63.551,36.809c0,1.433-5.488,2.593-12.259,2.593s-12.259-1.16-12.259-2.593,5.488-4.217,12.259-4.217,12.259,2.785,12.259,4.217" transform="translate(13.783 11.801)" fill="#fcc62d"/>
    <path id="XMLID_115_" d="M51.293,38.281c-6.771,0-12.259-1.16-12.259-2.593v5.45c0,1.432,5.49,2.592,12.259,2.592s12.254-1.16,12.259-2.592v-5.45c0,1.433-5.486,2.593-12.259,2.593" transform="translate(13.783 12.922)" fill="#e4af18"/>
    <path id="XMLID_114_" d="M39.034,35.687Z" transform="translate(13.783 12.921)" fill="#e4af18"/>
    <path id="XMLID_113_" d="M57.034,35.687Z" transform="translate(20.301 12.921)" fill="#e4af18"/>
    <path id="XMLID_112_" d="M35.1,17.724H17.4A1.362,1.362,0,0,1,17.4,15H35.1a1.362,1.362,0,1,1,0,2.724" transform="translate(5.456 5.431)" fill="#6b5b46"/>
    <path id="XMLID_111_" d="M35.1,14.724H17.4A1.362,1.362,0,0,1,17.4,12H35.1a1.362,1.362,0,1,1,0,2.724" transform="translate(5.456 4.345)" fill="#6b5b46"/>
    <path id="XMLID_110_" d="M35.1,11.724H17.4A1.362,1.362,0,0,1,17.4,9H35.1a1.362,1.362,0,1,1,0,2.724" transform="translate(5.456 3.259)" fill="#6b5b46"/>
    <path id="XMLID_109_" d="M50.873,54.281a48.2,48.2,0,0,1-7.306-.513,9.54,9.54,0,0,1-3.374,4.639c2.1.789,6.094,1.323,10.68,1.323,6.768,0,12.254-1.16,12.259-2.592v-5.45c0,1.433-5.486,2.593-12.259,2.593" transform="translate(14.203 18.715)" fill="#e4af18"/>
    <path id="XMLID_108_" d="M51.293,46.281c-6.771,0-12.259-1.16-12.259-2.593v1.354a9.543,9.543,0,0,1,5.131,6.2,48.63,48.63,0,0,0,7.128.486c6.768,0,12.254-1.16,12.259-2.592v-5.45c0,1.433-5.486,2.593-12.259,2.593" transform="translate(13.783 15.818)" fill="#e4af18"/>
    <path id="XMLID_107_" d="M49.976,50.281a48.629,48.629,0,0,1-7.128-.486,9.354,9.354,0,0,1-.178,5.421,48.2,48.2,0,0,0,7.306.513c6.768,0,12.254-1.16,12.259-2.592v-5.45c0,1.433-5.486,2.593-12.259,2.593" transform="translate(15.1 17.267)" fill="#d19d18"/>
    <path id="XMLID_106_" d="M48.1,53.534A9.534,9.534,0,1,1,38.568,44,9.534,9.534,0,0,1,48.1,53.534" transform="translate(10.163 15.931)" fill="#fcc62d"/>
    <path id="XMLID_105_" d="M8.4,46.793a1.363,1.363,0,0,1-1.362-1.362C7.034,36.075,17.371,25,26.1,25a1.362,1.362,0,0,1,0,2.724c-7.179,0-16.345,9.929-16.345,17.707A1.363,1.363,0,0,1,8.4,46.793" transform="translate(2.197 9.052)" fill="#dbccba"/>
  </g>
</svg>