<?xml version="1.0" standalone="no"?>
<!DOCTYPE svg PUBLIC "-//W3C//DTD SVG 1.1//EN" "http://www.w3.org/Graphics/SVG/1.1/DTD/svg11.dtd">
<svg xmlns="http://www.w3.org/2000/svg">
<metadata>Copyright (C) 2019 by original authors @ fontello.com</metadata>
<defs>
<font id="fontrepu" horiz-adv-x="1000" >
<font-face font-family="fontrepu" font-weight="400" font-stretch="normal" units-per-em="1000" ascent="850" descent="-150" />
<missing-glyph horiz-adv-x="1000" />
<glyph glyph-name="coins" unicode="&#xe802;" d="M1000 500c-2 29-36 51-104 68 3 5 4 10 4 15v117h0c-6 97-404 100-450 100s-444-3-450-100h0v-2 0 0l0-115c0-31 41-56 102-75-1-2-2-5-2-8h0v-2 0 0l0-114c-65-17-98-39-100-67h0v-2 0 0l0-115c0-22 20-41 53-56-2-4-2-7-3-11h0v-2 0 0l0-114c0-56 125-90 264-106 1-1 2-1 3-1 0 0 0 0 1 0 26-3 54-5 80-7 1 0 1 0 2 0 0 0 1 0 1 0 34-2 68-3 99-3 31 0 65 1 99 3 0 0 1 0 1 0 1 0 1 0 2 0 27 2 54 4 80 7 1 0 1 0 1 0 1 0 2 1 3 1 139 16 264 50 264 106v116h0c-1 21-19 38-53 52 2 5 3 10 3 15v109c60 18 100 43 100 74v117h0z m-135-305l-6-5c-9-8-23-16-42-23v79c20 7 36 15 50 23v-69c0-2-1-3-2-5z m-373-78c-2 0-5 0-7 0-6 0-12 0-18 0v83c4 0 9 0 13 0 1 0 2 0 3 0 17 1 34 1 50 2v-83c-3 0-7-1-10-1-10 0-21-1-31-1z m-73 0c-7 0-15 0-22 1-1 0-2 0-3 0-9 0-18 0-27 1v83c16-1 33-1 50-2 1 0 2 0 3 0 4 0 9 0 13 0v-83c-3 0-6 0-9 0-2 0-3 0-5 0z m-301 38c0 0-1 0-1 0v81c15-4 32-8 50-12v-81c-16 3-30 7-43 10-2 1-4 1-6 2z m352-138c4 0 9 0 13 0v-84c-23 1-45 1-66 2v84c16-1 33-2 50-2 1 0 2 0 3 0z m63 0c17 0 34 1 50 2v-84c-21-1-43-1-66-2v84c4 0 9 0 13 0 1 0 2 0 3 0z m134 8v-83c-16-2-33-3-50-5v84c17 1 33 2 50 4z m33 3c17 2 34 5 50 7v-82c-16-2-32-5-50-7v82z m83 13c18 4 35 7 50 12v-81c-14-4-31-8-50-12v81z m-566 0v-81c-19 4-35 8-50 12v81c15-5 32-8 50-12z m33-6c16-2 33-5 50-7v-82c-18 2-34 5-50 7v82z m83-10c17-2 33-3 50-4v-84c-17 2-34 3-50 5v83z m-41 99c-2 0-3 1-5 1-1 0-2 0-4 0v83c17-2 33-3 50-4v-83c-14 1-27 2-41 3z m-42 88v-83c-18 2-34 5-50 8v82c16-3 33-5 50-7z m328-90c-4-1-8-1-11-1v83c17 1 33 2 50 4v-83c-11-1-21-2-32-3-2 0-5 0-7 0z m72 7v83c17 2 34 4 50 7v-82c-16-3-32-6-50-8z m83 95c18 4 35 8 50 12v-81c-14-4-31-8-50-12v81z m-228 77c-12 0-24 0-36 1-1 0-2 0-2 0v83c16 0 33-1 50-1 1 0 2 0 3 0 4 0 9 0 13-1v-83c-8 0-16 0-24 1-1 0-2 0-4 0z m-388 238v80c15-4 32-8 50-11v-82c-2 1-4 1-6 2-9 2-18 4-26 6-7 2-13 3-18 5z m303 45c4 0 9 0 13-1v-83c-22 0-44 1-66 2v83c16 0 33-1 50-1 1 0 2 0 3 0z m63 0c17 0 34 1 50 1v-83c-2 0-5 0-8 0 0 0 0 0-1 0-11-1-22-1-34-1-2-1-3-1-5-1-6 0-12 0-18 0v83c4 1 9 1 13 1 1 0 2 0 3 0z m380-9l-1 0-6-4c-8-7-22-14-39-21v80c20 6 36 14 50 22v-69c0-2-2-5-4-8z m-213-62v82c17 2 34 4 50 7v-82c-16-3-32-5-50-7z m83 14v81c18 3 35 7 50 11v-80c-15-4-31-9-50-12z m-116 64v-82c-16-2-33-4-50-5v83c17 1 33 3 50 4z m-334-82v82c17-1 33-3 50-4v-83c-17 1-33 3-50 5z m-33 86v-83c-3 1-7 1-10 2-2 0-4 0-6 1-10 1-19 3-28 4-2 0-4 1-6 1v82c16-3 33-5 50-7z m179-291c-2 1-4 1-7 1-10 1-21 2-31 3-2 0-4 0-6 0-1 0-1 0-2 0v83c17-1 33-3 50-4v-83c-1 0-2 0-4 0z m-110 13c-6 1-13 2-19 3v82c16-3 33-5 50-7v-83c-10 2-20 3-30 5 0 0 0 0-1 0z m-52 91v-81c-19 4-35 8-50 12v80c15-4 32-8 50-11z m-84 22v-80c-26 10-43 21-48 30l-1 2c0 0-1 1-1 1l0 69c14-8 31-16 50-22z m400-46c17 0 34 1 50 1v-83c-22-1-44-2-66-2v83c4 1 9 1 13 1 1 0 2 0 3 0z m216-64c-8-2-15-3-23-4-4-1-9-1-13-2-4 0-9-1-13-2v83c17 2 34 4 50 7v-82c0 0-1 0-1 0z m-113-14c-7-1-13-1-19-2v83c17 1 33 3 50 4v-82c-10-1-20-2-30-3 0 0-1 0-1 0z m190 31c-8-3-17-5-26-7-4-1-8-2-13-3-1 0-2 0-4-1v82c18 3 35 7 50 11v-80c-2-1-4-2-7-2z m91 162c-2-11-28-26-73-41l0 0c-59-18-152-34-269-40-6 0-12 0-18 0-5 0-10-1-15-1-14 0-28 0-42 0s-28 0-42 0c-5 0-10 1-15 1-6 0-12 0-18 0-117 6-210 22-268 40l0 0c-46 14-71 29-73 41 0 0 0 0 0 1 1-1 2-1 3-1 7-2 14-3 20-5 34-7 70-13 109-17 1 0 1 0 1 0 0 0 0 0 0 0 26-3 54-6 82-7 1 0 1 0 1 0 0 0 0 0 0 0 21-1 41-2 62-3 13 0 26 0 38 0 9 0 18 0 27 0 121 2 233 16 311 39 4 1 7 2 11 3 2 0 4 1 6 2 6 2 12 4 18 6 1 0 1 0 2 1 5 1 10 3 14 5 1 1 3 1 4 2 4 2 9 4 13 6 2 1 3 2 5 3 2 1 4 3 6 4 1 0 2 1 3 2 75-16 95-34 97-41z m-517 268c275 0 414-44 416-68-2-12-27-27-72-41l0 0c-59-18-152-34-269-40-6 0-12 0-18 0-5 0-10-1-15-1-14 0-28 0-42 0s-28 0-42 0c-5 0-10 1-15 1-6 0-12 0-18 0-117 6-210 22-268 40l0 0c-46 14-71 29-73 41 2 24 141 68 416 68z m-417-184l0 69c14-8 31-16 50-22v-80c-32 12-50 24-50 33z m81-230c0 0 1-1 1-1 23-23 70-41 129-55 1 0 3 0 4-1 4 0 9-1 13-2 54-12 119-20 189-24 0 0 0 0 0 0 0 0 0 0 0 0 23-2 46-3 69-3 11 0 21 0 31 0 12 0 23 0 35 0 22 1 44 1 65 3 0 0 0 0 0 0 0 0 0 0 0 0 71 4 137 12 193 24-12-6-29-13-49-19l0 0c-63-19-162-37-288-41-4 0-8 0-12 0-4 0-8 0-12 0-11 0-21-1-32-1-14 0-28 1-42 1-5 0-10 0-15 0-6 1-12 1-18 1-117 5-210 22-268 40l0 0c-46 14-72 29-73 41 1 6 18 22 80 37z m-81-153l0 69c14-8 31-16 50-23v-79l-9 3 0 0c-26 11-41 22-41 30z m50-183l0 69c14-9 31-16 50-23v-80c-32 12-50 24-50 34z m784-34v80c20 7 36 14 50 23v-69c0-10-18-22-50-34z m50 149c-2-11-28-26-73-40l0 0c-59-18-152-35-269-40-6-1-12-1-18-1-5 0-10 0-15 0-14-1-28-1-42-1-14 0-28 0-42 1-5 0-10 0-15 0-6 0-12 0-18 1-117 5-209 22-268 40l0 0c-45 13-70 28-73 39 5-2 10-3 15-5 1 0 1 0 2-1 4-1 9-2 14-4 1 0 3-1 5-1 3-1 5-1 8-2 61-16 138-27 222-32 0 0 0 0 0 0 0 0 0 0 0 0 26-1 52-2 79-2 7-1 14-1 21-1 9 0 19 0 28 1 24 0 48 1 72 2 0 0 0 0 0 0 0 0 0 0 0 0 29 2 57 5 83 8 0 0 0 0 0 0 1 0 1 0 1 0 30 3 58 7 84 12 6 1 11 2 16 3 1 1 2 1 4 1 49 10 91 23 121 39 1 1 3 2 4 3 2 1 4 2 6 3 1 1 3 2 4 4 33-12 42-23 44-27z m0 218v80c20 6 36 14 50 22v-69c0-9-18-21-50-33z" horiz-adv-x="1000" />

<glyph glyph-name="laurels" unicode="&#xe804;" d="M236 639c14 10 28 21 45 34-178-192-155-467 11-608 162-139 411-127 557 27 152 159 139 424-18 580 72-27 147-200 142-321-5-107-43-198-117-275-74-77-164-117-268-128 1-15 1-28 2-39-12 11-23 29-34 29-10 1-21-18-31-28 0 10 0 23 0 37-22 4-47 9-71 15-159 38-287 178-308 338-16 117 7 225 81 319 4 6 6 14 9 20l0 0z m59-559c-42 58-43 121-5 161 40-49 43-122 5-161z m-203 492c45-24 63-95 38-154-45 19-65 94-38 154z m173-152c6-59-36-128-89-131-3 64 39 125 89 131z m433-308c7-53-33-104-98-126-15 44 37 114 98 126z m-184-125c-61 15-108 75-98 125 59-11 108-73 98-125z m-171 179c57-44 78-103 56-151-49 26-83 100-56 151z m678 406c25-53 13-128-35-154-26 45-15 128 35 154z m-128-396c-47 25-66 91-44 153 48-22 71-104 44-153z m-75-96c-37 30-36 113 6 161 38-39 35-109-6-161z m120 209c-52 5-100 76-89 132 53-12 90-66 89-132z m4 120c-52-8-108 35-125 97 52 14 112-42 125-97z m-806-128c-45 4-91 67-83 134 53-6 87-76 83-134z m925 134c6-67-37-131-82-134-7 55 27 128 82 134z m-290-249c22-53-1-117-54-151-28 46 0 113 54 151z m-70 469c42 37 111 30 159-10-38-42-126-25-159 10z m-289 0c-44-42-118-46-158-12 42 41 116 50 158 12z m-241-226c12 58 73 106 124 99-3-42-64-111-124-99z m-113-151c49 10 107-38 121-100-55-9-107 43-121 100z m891 441c35-38 42-127-2-159-37 50-37 120 2 159z m-785 1c39-42 40-100 3-159-39 25-42 106-3 159z m33-177c33 51 96 81 150 56-34-54-96-77-150-56z m738-366c7 56 67 108 120 102-10-55-64-109-120-102z m-671 173c24-58 3-130-43-154-26 51-7 123 43 154z m-28 309c-22 22-27 49-24 78 2 32 18 65 38 83 20-28 27-59 17-91-7-24-20-47-31-70 0 0 0 0 0 0z m680-116c-53-21-117 3-150 56 48 24 122-3 150-56z m-52 277c43-49 52-116 16-159-43 42-50 114-16 159z m-14-751c28 55 99 90 143 66-32-56-95-86-143-66z m-114-79c36 41 110 64 156 28-39-45-111-59-156-28z m-514 28c41 35 115 16 155-28-39-31-115-18-155 28z m288-64c-34-44-93-53-156-25 19 39 95 60 156 25z m-390 181c43 24 112-9 143-65-39-22-109 5-143 65z m641-205c-61-29-123-20-158 23 56 33 127 20 158-23z" horiz-adv-x="1103" />

<glyph glyph-name="group" unicode="&#xe805;" d="M1219 403c41 29 68 77 68 131 0 89-72 160-160 160s-160-71-160-160c0-54 27-102 68-131-35-12-67-31-94-55-38 32-82 56-130 71 58 35 98 100 98 173 0 112-91 203-203 203s-203-91-203-203c0-73 39-138 98-173-48-15-91-39-129-70-27 24-58 42-93 54 41 29 68 77 68 131 0 89-71 160-160 160-88 0-160-71-160-160 0-54 27-102 68-131-110-38-189-142-189-265v-19c0 0 1-1 1-1h340c-2-15-4-31-4-47v-18c0-82 67-148 148-148h430c82 0 148 66 148 148v18c0 16-1 32-3 47h341c1 0 1 1 1 1v19c0 123-79 227-189 265z m-208 132c0 63 52 115 116 115 64 0 116-52 116-115 0-63-51-115-114-116-1 0-1 0-2 0-1 0-1 0-2 0-63 1-114 52-114 116z m-464 57c0 88 71 159 158 159s159-71 159-159c0-84-67-153-150-158-3 0-6 0-9 0-3 0-6 0-9 0-83 5-149 74-149 158z m-376-57c0 63 52 115 115 115 64 0 116-52 116-115 0-63-51-115-113-116-1 0-2 0-3 0-1 0-1 0-2 0-63 1-113 52-113 116z m183-372h-303c13 118 112 211 234 212 0 0 1 0 1 0 1 0 1 0 2 0 58-1 110-22 151-57-40-43-69-96-85-155z m670-110c0-57-47-104-103-104h-430c-57 0-104 47-104 104v18c0 173 138 314 309 319 3-1 6-1 10-1 3 0 6 0 9 1 171-5 309-146 309-319v-18z m33 110c-16 58-45 111-84 154 41 36 94 57 152 58 1 0 1 0 2 0s1 0 2 0c121-1 221-94 233-212h-305z" horiz-adv-x="1414" />
</font>
</defs>
</svg>